{
"Linhartova":
	{"x":462384, "y":102214},
"Kozolec":
	{"x":462050, "y":101529},
"Tivoli I.":
	{"x":461615, "y":101628},
"Kranjčeva (Pop TV)":
	{"x":463379, "y":103001},
"Mirje":
	{"x":461281, "y":100410},
"P+R Studenec":
	{"x":466947, "y":101247},
"Trg MDB":
	{"x":461339, "y":100426},
"Gospodarsko razstavišče":
	{"x":462514, "y":102064},
"Bežigrad":
	{"x":462323, "y":102140},
"Trg prekomorskih brigad":
	{"x":460893, "y":102857},
"Senatorij Emona":
	{"x":462352, "y":101161},
"Petkovškovo nabrežje II.":
	{"x":462511, "y":101003},
"P+R Dolgi Most":
	{"x":458813, "y":99288},
"Tivoli II.":
	{"x":461501, "y":101853},
"Žale II.":
	{"x":463890, "y":102647},
"Žale I.":
	{"x":463889, "y":102880},
"NUK II.":
	{"x":461827, "y":100390},
"Žale III. - Soča":
	{"x":463691, "y":102777},
"Center Stožice":
	{"x":463455, "y":104206},
"Žale IV.":
	{"x":463815, "y":102749},
"Kongresni trg":
	{"x":461922, "y":100837},
"Gosarjeva ulica":
	{"x":462922, "y":103526},
"Štembalova ulica":
	{"x":462919, "y":103907},
"PH Kolezija":
	{"x":461161, "y":99910},
"Gospodarsko razstavišče - Abonenti-ukinjeno":
	{"x":461632, "y":98278},
"Gosarjeva ulica II.":
	{"x":462925, "y":103529},
"Slovenčeva ulica":
	{"x":462316, "y":105197},
"Povšetova ulica":
	{"x":463938, "y":100901},
"Metelkova ulica":
	{"x":462937, "y":101568}
}